{
    "name": "Quentin Carré",
    "bio": "Bachelor Mechanical Engineering student at TU/e",
    "social": [
        { "linkedin": "https://www.linkedin.com/in/quentin-carr%C3%A9-b93777239" }
    ]
}